module github.com/heroiclabs/nakama/v3

go 1.20

require (
	github.com/blugelabs/bluge v0.2.2
	github.com/blugelabs/bluge_segment_api v0.2.0
	github.com/blugelabs/query_string v0.3.0
	github.com/dop251/goja v0.0.0-20221003171542-5ea1285e6c91
	github.com/gofrs/uuid/v5 v5.0.0
	github.com/golang-jwt/jwt/v4 v4.5.0
	github.com/golang/snappy v0.0.4
	github.com/gorilla/handlers v1.5.1
	github.com/gorilla/mux v1.8.0
	github.com/gorilla/websocket v1.5.0
	github.com/grpc-ecosystem/grpc-gateway/v2 v2.16.0
	github.com/heroiclabs/nakama-common v1.27.1-0.20230717184507-dff09d7c8047
	github.com/jackc/pgconn v1.14.0
	github.com/jackc/pgerrcode v0.0.0-20220416144525-469b46aa5efa
	github.com/jackc/pgtype v1.14.0
	github.com/jackc/pgx/v4 v4.18.1
	github.com/prometheus/client_golang v1.16.0
	github.com/rubenv/sql-migrate v1.2.0
	github.com/stretchr/testify v1.8.4
	github.com/twmb/murmur3 v1.1.8
	github.com/uber-go/tally/v4 v4.1.7
	go.uber.org/atomic v1.11.0
	go.uber.org/zap v1.24.0
	golang.org/x/crypto v0.11.0
	golang.org/x/oauth2 v0.10.0
	google.golang.org/genproto/googleapis/api v0.0.0-20230530153820-e85fd2cbaebc
	google.golang.org/grpc v1.56.2
	google.golang.org/grpc/cmd/protoc-gen-go-grpc v1.3.0
	google.golang.org/protobuf v1.31.0
	gopkg.in/natefinch/lumberjack.v2 v2.0.0-20230206193814-4cb27fcfbb0f
	gopkg.in/yaml.v3 v3.0.1
)

require (
	cloud.google.com/go/compute v1.20.1 // indirect
	cloud.google.com/go/compute/metadata v0.2.3 // indirect
	github.com/RoaringBitmap/roaring v0.9.4 // indirect
	github.com/axiomhq/hyperloglog v0.0.0-20191112132149-a4c4c47bc57f // indirect
	github.com/beorn7/perks v1.0.1 // indirect
	github.com/bits-and-blooms/bitset v1.2.0 // indirect
	github.com/blevesearch/go-porterstemmer v1.0.3 // indirect
	github.com/blevesearch/mmap-go v1.0.4 // indirect
	github.com/blevesearch/segment v0.9.0 // indirect
	github.com/blevesearch/snowballstem v0.9.0 // indirect
	github.com/blevesearch/vellum v1.0.7 // indirect
	github.com/blugelabs/ice v1.0.0 // indirect
	github.com/blugelabs/ice/v2 v2.0.1 // indirect
	github.com/caio/go-tdigest v3.1.0+incompatible // indirect
	github.com/cespare/xxhash/v2 v2.2.0 // indirect
	github.com/davecgh/go-spew v1.1.1 // indirect
	github.com/dgryski/go-metro v0.0.0-20180109044635-280f6062b5bc // indirect
	github.com/dlclark/regexp2 v1.7.0 // indirect
	github.com/felixge/httpsnoop v1.0.1 // indirect
	github.com/go-gorp/gorp/v3 v3.1.0 // indirect
	github.com/go-sourcemap/sourcemap v2.1.3+incompatible // indirect
	github.com/golang/glog v1.1.0 // indirect
	github.com/golang/protobuf v1.5.3 // indirect
	github.com/jackc/chunkreader/v2 v2.0.1 // indirect
	github.com/jackc/pgio v1.0.0 // indirect
	github.com/jackc/pgpassfile v1.0.0 // indirect
	github.com/jackc/pgproto3/v2 v2.3.2 // indirect
	github.com/jackc/pgservicefile v0.0.0-20221227161230-091c0ba34f0a // indirect
	github.com/klauspost/compress v1.15.2 // indirect
	github.com/matttproud/golang_protobuf_extensions v1.0.4 // indirect
	github.com/mschoch/smat v0.2.0 // indirect
	github.com/pkg/errors v0.9.1 // indirect
	github.com/pmezard/go-difflib v1.0.0 // indirect
	github.com/prometheus/client_model v0.3.0 // indirect
	github.com/prometheus/common v0.42.0 // indirect
	github.com/prometheus/procfs v0.10.1 // indirect
	go.uber.org/multierr v1.6.0 // indirect
	golang.org/x/net v0.12.0 // indirect
	golang.org/x/sys v0.10.0 // indirect
	golang.org/x/text v0.11.0 // indirect
	google.golang.org/appengine v1.6.7 // indirect
	google.golang.org/genproto v0.0.0-20230530153820-e85fd2cbaebc // indirect
	google.golang.org/genproto/googleapis/rpc v0.0.0-20230530153820-e85fd2cbaebc // indirect
)
